…
图中每个圆环的大小代表了每个观测值的个数。协变异表明x和y之间存在着很强的关联。

```
diamonds %>% 
  count(color, cut)
#> Source: local data frame [35 x 3]
#> Groups: color [?]
#> 
#>   color       cut     n
#>   <ord>     <ord> <int>
#> 1     D      Fair   163
#> 2     D      Good   662
#> 3     D Very Good  1513
#> 4     D   Premium  1603
#> 5     D     Ideal  2834
#> 6     E      Fair   224
#> # ... with 29 more rows
```

另一种方法是使用dplyr包中的count计算：

```
diamonds %>% 
  count(color, cut)
#> Source: local data frame [35 x 3]
#> Groups: color [?]
#> 
#>   color       cut     n
#>   <ord>     <ord> <int>
#> 1     D      Fair   163
#> 2     D      Good   662
#> 3     D Very Good  1513
#> 4     D   Premium  1603
#> 5     D     Ideal  2834
#> 6     E      Fair   224
#> # ... with 29 more rows
```
…
